<?xml version="1.0" standalone="no"?>
<!DOCTYPE svg PUBLIC "-//W3C//DTD SVG 1.1//EN" "http://www.w3.org/Graphics/SVG/1.1/DTD/svg11.dtd" >
<svg xmlns="http://www.w3.org/2000/svg">
<metadata>Generated by IcoMoon</metadata>
<defs>
<font id="icomoon" horiz-adv-x="1024">
<font-face units-per-em="1024" ascent="960" descent="-64" />
<missing-glyph horiz-adv-x="1024" />
<glyph unicode="&#x20;" horiz-adv-x="512" d="" />
<glyph unicode="&#xe900;" glyph-name="google" d="M764.657 446.133v-30.901h-55.266v-55.145h-40.358v54.995c-9.156 0-17.378-0.12-25.69 0-9.879 0.241-19.757 0.693-29.636 1.024l-1.385 30.268v9.848h56.049v55.778c12.951 0 25.148 0.151 37.346-0.301 1.385 0 3.614-4.006 3.674-6.144 0.361-13.372 0.181-26.714 0.151-40.087v-9.367h55.115v-9.939zM533.564 312.26c-24.998-26.594-56.922-39.514-92.702-43.43-5.495-0.666-11.858-1.045-18.31-1.045-67.869 0-125.921 42.032-149.546 101.485l-0.381 1.087c-6.854 16.983-10.83 36.678-10.83 57.301 0 9.658 0.872 19.113 2.542 28.289l-0.145-0.96c11.174 64.090 61.38 118.965 131.132 130.349 48.52 7.951 91.859-3.765 129.506-35.539 1.416-1.205 2.891-2.229 3.976-3.042-16.113-16.264-31.202-31.443-46.773-47.074-10.971 9.905-24.518 17.166-39.511 20.662l-0.605 0.119c-43.219 9.427-86.95-14.155-104.568-52.887-3.072-6.776-5.421-13.975-6.807-21.504-9.487-53.519 23.793-102.972 77.222-111.736 43.038-7.078 83.125 12.228 96.256 51.019 0.964 2.921 1.687 5.903 2.801 10.089h-85.474c0 21.143-0.090 41.231 0.301 61.32 0 1.295 3.313 3.554 5.24 3.614 9.939 0.392 19.968 0.181 29.907 0.181 34.936 0 69.813-0.241 104.689 0.241 7.951 0.090 11.475-1.536 12.469-10.21 5.843-51.832-3.614-99.208-40.388-138.33zM513.205 932.984c-268.68 0-486.52-217.57-486.52-485.948 0-268.469 217.841-486.039 486.52-486.039 268.71 0 486.49 217.57 486.49 486.039 0 268.348-217.781 485.948-486.49 485.948z" />
<glyph unicode="&#xe901;" glyph-name="twitter" d="M757.077 550.028c0.215-4.428 0.338-9.616 0.338-14.833 0-25.88-3.018-51.055-8.722-75.193l0.44 2.21c-30.844-136.72-147.735-268.536-337.982-268.536-68.701 0-132.686 19.859-186.585 53.807 9.557-1.086 19.239-1.645 29.044-1.645 0.179 0 0.39-0.001 0.602-0.001 56.933 0 109.361 19.286 151.107 51.681l-0.561-0.419c-52.732 0.784-97.269 35.004-113.41 82.367l-0.254 0.856c6.97-1.407 14.982-2.212 23.182-2.212 11.312 0 22.265 1.532 32.665 4.401l-0.861-0.203c-40.913 8.278-73.858 36.219-88.982 73.32l-0.293 0.812c-5.281 12.823-8.347 27.71-8.347 43.313 0 0.045 0 0.091 0 0.136v-0.007 1.458c16.384-8.999 35.188-14.367 55.079-14.957-32.729 21.572-54.048 58.139-54.117 99.69v0.010c0 21.938 6.051 42.512 16.477 60.199 60.722-72.827 149.799-120.236 250.043-125.145l0.806-0.031c-1.992 8.181-3.134 17.573-3.134 27.231 0 0.026 0 0.053 0 0.079v-0.004c0 66.095 54.458 119.777 121.639 119.777 35.033 0 66.653-14.522 88.778-37.795 29.138 5.699 55.056 15.796 78.452 29.694l-1.125-0.619c-9.509-28.327-28.416-51.367-52.942-65.944l-0.555-0.305c24.638 2.855 48.097 9.309 69.88 18.804-16.651-24.351-36.778-44.902-59.931-61.499l-0.733-0.5zM521.185 960c-276.573 0-500.736-224.163-500.736-500.736 0-276.542 224.163-500.736 500.736-500.736 276.511 0 500.705 224.194 500.705 500.736 0 276.573-224.194 500.736-500.705 500.736z" />
<glyph unicode="&#xe902;" glyph-name="facebook" d="M646.816 494.208l-4.352-47.68h-90.016v-303.232h-121.28v303.264h-60.672v121.28h60.16v54.816c0 49.6 23.616 127.136 127.616 127.136l93.696-0.384v-103.968h-68.032c-11.072 0-26.816-5.504-26.816-29.12v-48.512h96.384l-6.72-73.632zM512 960c-282.752 0-512-229.248-512-512s229.248-512 512-512 512 229.248 512 512-229.248 512-512 512z" />
<glyph unicode="&#xe903;" glyph-name="linkedin" d="M828.317 392.968v-222.175h-121.327v196.938c0 47.005-5.186 107.421-69.599 107.421-65.371 0-75.314-51.167-75.314-104.019v-200.374h-117.826v404.315h112.706v-54.569h1.751c16.747 31.843 57.806 54.569 118.916 54.569 103.061 0 138.042-47.93 147.621-124.168 2.246-17.837 3.105-37.26 3.105-57.972zM292.6 635.755c-39.077 0-70.755 31.678-70.755 70.755s31.678 70.755 70.755 70.755v0c39.077 0 70.755-31.678 70.755-70.755s-31.678-70.755-70.755-70.755v0zM363.355 491.669v-320.875h-141.51v404.315h141.51v-83.439zM512 960c-282.789 0-512-229.244-512-512s229.211-512 512-512c282.756 0 512 229.244 512 512s-229.244 512-512 512z" />
<glyph unicode="&#xe904;" glyph-name="arrow-left" horiz-adv-x="649" d="M531.957-64l117.043 121.515-398.848 377.924 398.848 377.89-117.043 121.549-518.656-499.439z" />
<glyph unicode="&#xe905;" glyph-name="arrow-right" horiz-adv-x="649" d="M117.043 960l-117.043-121.515 398.848-377.924-398.848-377.89 117.043-121.549 518.656 499.439z" />
<glyph unicode="&#xe906;" glyph-name="mailbox" horiz-adv-x="843" d="M768 192h-448v317.079c0 37.346-12.951 71.439-33.792 98.906h161.792v-159.985c0-17.673 14.327-32 32-32s32 14.327 32 32v0 160.015h160.015c52.887 0 95.985-44.393 95.985-98.936v-317.079zM64 509.079c0 54.513 43.068 98.906 96.015 98.906 52.887 0 95.985-44.363 95.985-98.906v-317.079h-192v317.079zM512 896h236.213l-64-128h-172.213v128zM672.015 671.985h-160.015v32.015h192c12.137 0 23.191 6.837 28.612 17.709l96.015 192c2.118 4.161 3.359 9.073 3.359 14.276 0 17.666-14.308 31.99-31.968 32.015h-320.002c-17.769 0-32.015-14.336-32.015-32.015v-256h-288.015c-88.245 0-159.985-73.065-159.985-162.876v-349.064c0-17.709 14.306-32.015 32.015-32.015h351.985v-160.015c0-17.673 14.327-32 32-32s32 14.327 32 32v0 160.015h352.015c17.679 0 31.985 14.306 31.985 32.015v349.064c0 89.841-71.77 162.936-160.015 162.936z" />
<glyph unicode="&#xe907;" glyph-name="print" d="M943.872 0h-863.744c-8.911 0.018-16.128 7.246-16.128 16.16 0 0 0 0 0 0v0 21.568l439.456 279.616c2.423 1.564 5.383 2.494 8.56 2.494s6.137-0.93 8.623-2.532l-0.063 0.038 439.424-279.616v-21.568c0 0 0 0 0 0 0-8.914-7.217-16.142-16.126-16.16h-0.002zM130.944 519.136v-58.816l-42.592 30.4 42.56 28.416zM64 429.44l233.888-167.040-233.92-148.8v315.84zM206.080 896h433.92v-160c0-17.673 14.327-32 32-32v0h159.68l-0.992-116.512c-0.791-2.607-1.246-5.603-1.246-8.705 0-2.938 0.408-5.78 1.171-8.473l-0.053 0.219-1.376-155.84-161.312-115.2-112.96 71.872c-12.157 7.822-27 12.469-42.928 12.469s-30.771-4.648-43.247-12.661l0.319 0.192-113.024-71.904-161.088 115.136v470.208c0 0 0 0 0 0 0 6.163 4.978 11.164 11.133 11.2h0.003zM935.648 490.752l-42.048-30.080 0.48 57.792 41.568-27.712zM959.968 429.504v-315.872l-233.856 148.8 233.888 167.072zM704 850.752l82.784-82.752h-82.784v82.752zM1023.424 495.936c-0.128 1.024-0.16 2.016-0.384 3.008-0.865 3.719-2.255 7-4.111 9.959l0.079-0.135c-0.384 0.608-0.96 1.088-1.344 1.6-1.884 2.557-4.059 4.752-6.511 6.598l-0.081 0.058c-0.512 0.384-0.768 0.928-1.28 1.248l-114.976 76.672 1.184 140.736v0.128c0 4.896-1.408 9.664-3.616 14.144-1.495 3.298-3.395 6.129-5.683 8.596l-0.013-0.020-0.064 0.096-192 191.968c-5.793 5.81-13.804 9.406-22.656 9.408h-465.888c-41.497-0.055-75.118-33.698-75.136-75.198v-288.738l-116.704-77.792c-1.44-0.96-2.656-2.176-3.904-3.328l-1.28-1.056c-2.408-2.538-4.399-5.502-5.842-8.763l-0.078-0.197c-0.352-0.64-0.576-1.312-0.864-2.016-1.28-3.424-2.24-6.976-2.272-10.72v-476.064c0.055-44.231 35.897-80.073 80.123-80.128h863.749c44.243 0.055 80.092 35.915 80.128 80.156v475.492c0 1.472-0.384 2.848-0.64 4.288zM320 704h192c17.673 0 32 14.327 32 32s-14.327 32-32 32v0h-192c-17.673 0-32-14.327-32-32s14.327-32 32-32v0zM320 576h384c17.673 0 32 14.327 32 32s-14.327 32-32 32v0h-384c-17.673 0-32-14.327-32-32s14.327-32 32-32v0zM320 448h384c17.673 0 32 14.327 32 32s-14.327 32-32 32v0h-384c-17.673 0-32-14.327-32-32s14.327-32 32-32v0z" />
<glyph unicode="&#xe908;" glyph-name="whatsapp" d="M773.788 347.381c-3.117 5.075-11.309 8.192-23.597 14.247-12.333 6.144-72.793 35.617-84.057 39.713s-19.456 6.144-27.648-6.099c-8.237-12.199-31.789-39.669-38.957-47.816-7.213-8.192-14.336-9.216-26.713-3.117-12.243 6.099-51.912 19.011-98.838 60.55-36.597 32.412-61.262 72.303-68.43 84.547-7.213 12.243-0.757 18.788 5.343 24.888 5.61 5.476 12.333 14.247 18.521 21.37 6.099 7.123 8.147 12.199 12.243 20.391 4.141 8.103 2.093 15.226-0.979 21.37-3.117 6.099-27.693 66.159-37.977 90.602-10.24 24.398-20.48 20.346-27.648 20.346s-15.405 1.024-23.597 1.024c-13.065-0.347-24.707-6.159-32.772-15.225l-0.040-0.046c-11.264-12.243-43.008-41.761-43.008-101.777 0-60.104 44.032-118.116 50.176-126.219 6.189-8.147 85.126-135.391 210.143-184.32 125.062-48.796 125.062-32.501 147.634-30.408 22.483 1.959 72.704 29.518 83.033 57.967 10.195 28.494 10.195 52.981 7.123 58.056zM520.459 880.707c-232.671 0-421.933-187.793-421.933-418.638 0-91.537 29.83-176.44 80.406-245.448l-52.714-155.425 162.059 51.556c65.206-43.415 145.34-69.276 231.515-69.276 0.234 0 0.469 0 0.703 0.001h-0.037c232.582 0 421.843 187.793 421.843 418.593 0 230.845-189.262 418.638-421.843 418.638zM1022.219 462.069c0-275.011-224.657-497.887-501.76-497.887-88.019 0-170.652 22.439-242.643 61.885l-277.816-88.153 90.602 267.13c-45.204 73.082-71.992 161.695-71.992 256.564 0 0.177 0 0.355 0 0.532v-0.028c-0.045 274.966 224.612 497.887 501.805 497.887 277.148 0 501.76-222.92 501.76-497.931z" />
<glyph unicode="&#xe909;" glyph-name="close" d="M512 533.197l-362.035 362.035-72.397-72.397 362.035-362.035-362.035-362.035 72.397-72.397 362.035 362.035 362.035-362.035 72.397 72.397-362.035 362.035 362.035 362.035-72.397 72.397-362.035-362.035z" />
<glyph unicode="&#xe90a;" glyph-name="checkmark" d="M0 409.6l102.4 102.4 256-256 563.2 563.2 102.4-102.4-665.6-665.6z" />
<glyph unicode="&#xf00c;" glyph-name="check" d="M954.857 627.428c0-14.286-5.714-28.571-16-38.857l-491.429-491.429c-10.286-10.286-24.571-16-38.857-16s-28.571 5.714-38.857 16l-284.571 284.571c-10.286 10.286-16 24.571-16 38.857s5.714 28.571 16 38.857l77.714 77.714c10.286 10.286 24.571 16 38.857 16s28.571-5.714 38.857-16l168-168.571 374.857 375.429c10.286 10.286 24.571 16 38.857 16s28.571-5.714 38.857-16l77.714-77.714c10.286-10.286 16-24.571 16-38.857z" />
<glyph unicode="&#xf059;" glyph-name="question-circle" horiz-adv-x="878" d="M512 164.571v109.714c0 10.286-8 18.286-18.286 18.286h-109.714c-10.286 0-18.286-8-18.286-18.286v-109.714c0-10.286 8-18.286 18.286-18.286h109.714c10.286 0 18.286 8 18.286 18.286zM658.286 548.571c0 104.571-109.714 182.857-208 182.857-93.143 0-162.857-40-212-121.714-5.143-8-2.857-18.286 4.571-24l75.429-57.143c2.857-2.286 6.857-3.429 10.857-3.429 5.143 0 10.857 2.286 14.286 6.857 26.857 34.286 38.286 44.571 49.143 52.571 9.714 6.857 28.571 13.714 49.143 13.714 36.571 0 70.286-23.429 70.286-48.571 0-29.714-15.429-44.571-50.286-60.571-40.571-18.286-96-65.714-96-121.143v-20.571c0-10.286 8-18.286 18.286-18.286h109.714c10.286 0 18.286 8 18.286 18.286v0c0 13.143 16.571 41.143 43.429 56.571 43.429 24.571 102.857 57.714 102.857 144.571zM877.714 438.857c0-242.286-196.571-438.857-438.857-438.857s-438.857 196.571-438.857 438.857 196.571 438.857 438.857 438.857 438.857-196.571 438.857-438.857z" />
<glyph unicode="&#xf05a;" glyph-name="info-circle" horiz-adv-x="878" d="M585.143 164.571v91.429c0 10.286-8 18.286-18.286 18.286h-54.857v292.571c0 10.286-8 18.286-18.286 18.286h-182.857c-10.286 0-18.286-8-18.286-18.286v-91.429c0-10.286 8-18.286 18.286-18.286h54.857v-182.857h-54.857c-10.286 0-18.286-8-18.286-18.286v-91.429c0-10.286 8-18.286 18.286-18.286h256c10.286 0 18.286 8 18.286 18.286zM512 676.571v91.429c0 10.286-8 18.286-18.286 18.286h-109.714c-10.286 0-18.286-8-18.286-18.286v-91.429c0-10.286 8-18.286 18.286-18.286h109.714c10.286 0 18.286 8 18.286 18.286zM877.714 438.857c0-242.286-196.571-438.857-438.857-438.857s-438.857 196.571-438.857 438.857 196.571 438.857 438.857 438.857 438.857-196.571 438.857-438.857z" />
</font></defs></svg>